<svg id="Слой_1" data-name="Слой 1" xmlns="http://www.w3.org/2000/svg" viewBox="0 0 14.98 15">
  <title>dnl</title>
  <g>
    <path d="M7.5,8.57,10.72,5H8.58V0H6.43l0,5H4.29Z" fill="#fff"/>
    <path d="M12.84,6.43v6.43H2.13V6.43H0v7.14C0,14.56.4,15,1.41,15H13.55c1,0,1.43-.44,1.43-1.43V6.43Z" fill="#fff"/>
  </g>
</svg>
